<?xml version="1.0" encoding="utf-8"?>
<!-- Generator: Adobe Illustrator 21.1.0, SVG Export Plug-In . SVG Version: 6.00 Build 0)  -->
<svg version="1.1" id="OBJECTS" xmlns="http://www.w3.org/2000/svg" xmlns:xlink="http://www.w3.org/1999/xlink" x="0px" y="0px"
	 viewBox="0 0 214.9 171" style="enable-background:new 0 0 214.9 171;" xml:space="preserve">
<style type="text/css">
	.st0{fill:#EAD90A;}
	.st1{fill:#403408;}
	.st2{fill:none;stroke:#403408;stroke-width:7;stroke-linecap:round;stroke-miterlimit:10;}
	.st3{opacity:0.6;fill:#FF0000;}
</style>
<g id="XMLID_87_">
	<g id="XMLID_364_">
		<g id="XMLID_365_">
			<circle id="XMLID_366_" class="st0" cx="107.5" cy="85.5" r="68.8"/>
		</g>
	</g>
	<g id="XMLID_323_">
		<path id="XMLID_31_" class="st1" d="M76.3,84.1L76.3,84.1c-2.8,0-5-2.3-5-5v-12c0-2.8,2.3-5,5-5l0,0c2.8,0,5,2.3,5,5v12
			C81.3,81.8,79,84.1,76.3,84.1z"/>
		<path id="XMLID_19_" class="st1" d="M139,84.1L139,84.1c-2.8,0-5-2.3-5-5v-12c0-2.8,2.3-5,5-5l0,0c2.8,0,5,2.3,5,5v12
			C144,81.8,141.7,84.1,139,84.1z"/>
	</g>
	<path id="XMLID_33_" class="st2" d="M132.3,95.5c0,0-5.2,10.9-24.8,10.9C88,106.5,83,95.6,83,95.6"/>
	<g id="XMLID_34_">
		<circle id="XMLID_148_" class="st3" cx="62.3" cy="91.5" r="10"/>
		<circle id="XMLID_104_" class="st3" cx="158.7" cy="91.5" r="10"/>
	</g>
</g>
</svg>
