<?xml version="1.0" encoding="utf-8"?>
<!-- Generator: Adobe Illustrator 21.1.0, SVG Export Plug-In . SVG Version: 6.00 Build 0)  -->
<svg version="1.1" id="OBJECTS" xmlns="http://www.w3.org/2000/svg" xmlns:xlink="http://www.w3.org/1999/xlink" x="0px" y="0px"
	 viewBox="0 0 214.9 171" style="enable-background:new 0 0 214.9 171;" xml:space="preserve">
<style type="text/css">
	.st0{fill:#d7d7d7;}
	.st1{fill:#a5a4a4;}
	.st2{fill:none;stroke:#a5a4a4;stroke-width:7;stroke-linecap:round;stroke-miterlimit:10;}
	.st3{opacity:0.6;fill:#a5a4a4;}
</style>
<g id="XMLID_92_">
	<g id="XMLID_362_">
		<circle id="XMLID_363_" class="st0" cx="107.5" cy="86.6" r="68.8"/>
	</g>
	<g id="XMLID_50_">
		<path id="XMLID_52_" class="st1" d="M76.1,87.1L76.1,87.1c-2.8,0-5-2.3-5-5V64.7c0-2.7,2.3-5,5-5l0,0c2.8,0,5,2.3,5,5v17.3
			C81.1,84.8,78.9,87.1,76.1,87.1z"/>
		<path id="XMLID_51_" class="st1" d="M138.8,87.1L138.8,87.1c-2.8,0-5-2.3-5-5V64.7c0-2.7,2.3-5,5-5l0,0c2.8,0,5,2.3,5,5v17.3
			C143.8,84.8,141.5,87.1,138.8,87.1z"/>
	</g>
	<path id="XMLID_32_" class="st2" d="M82.8,113.8c0,0,5.2-18.3,24.8-18.3c18.1,0,26,23.4,24.6,18.1"/>
	<path id="XMLID_3_" class="st3" d="M132.9,93.9c1.5-3.2,7,0.1,8.5-3.1c4-8.6,4.6,5.3,3.1,8.5c-1.5,3.2-5.3,4.6-8.5,3.1
		C132.8,100.9,131.4,97.1,132.9,93.9z"/>
</g>
</svg>
